{
  "thefirework": "/static/themes/thefirework.json", 
  "pleroma-dark": "/static/themes/pleroma-dark.json",
  "pleroma-light": "/static/themes/pleroma-light.json",
  "mammal": "/static/themes/mammal.json",
  "paper": "/static/themes/paper.json",
  "autumn-hare": "/static/themes/autumn-hare.json",  
  "classic-mac": "/static/themes/classic-mac.json",  
  "cyberpunk": "/static/themes/cyberpunk.json",  
  "tumblr": "/static/themes/tumblr.json",
  "win-311": "/static/themes/win-311.json",  
  "win-xp": "/static/themes/win-xp.json"
}
